COA/Lab/alterafiles/lab_04_coa/task1/simulation/qsim/FourBitCounter.msim.vcd
$comment
	File created using the following command:
		vcd file FourBitCounter.msim.vcd -direction
$end
$date
	Fri Mar 07 09:16:13 2025
$end
$version
	ModelSim Version 10.1d
$end
$timescale
	1ps
$end
$scope module FourBitCounter_vlg_vec_tst $end
$var reg 1 ! clk $end
$var wire 1 " binOut [3] $end
$var wire 1 # binOut [2] $end
$var wire 1 $ binOut [1] $end
$var wire 1 % binOut [0] $end
$var wire 1 & sampler $end
$scope module i1 $end
$var wire 1 ' gnd $end
$var wire 1 ( vcc $end
$var wire 1 ) unknown $end
$var tri1 1 * devclrn $end
$var tri1 1 + devpor $end
$var tri1 1 , devoe $end
$var wire 1 - binOut[0]~output_o $end
$var wire 1 . binOut[1]~output_o $end
$var wire 1 / binOut[2]~output_o $end
$var wire 1 0 binOut[3]~output_o $end
$var wire 1 1 clk~input_o $end
$var wire 1 2 clk~inputclkctrl_outclk $end
$var wire 1 3 U1|Q_not~0_combout $end
$var wire 1 4 U1|Q_not~q $end
$var wire 1 5 U2|Q~0_combout $end
$var wire 1 6 U2|Q~q $end
$var wire 1 7 U3|Q~0_combout $end
$var wire 1 8 U3|Q~q $end
$var wire 1 9 U4|Q~0_combout $end
$var wire 1 : U4|Q~q $end
$upscope $end
$upscope $end
$enddefinitions $end
#0
$dumpvars
0!
1%
0$
0#
0"
x&
0'
1(
x)
1*
1+
1,
1-
0.
0/
00
01
02
13
04
15
06
07
08
09
0:
$end
#10000
1!
11
12
0&
14
16
03
0-
1.
0%
1$
#20000
0!
01
02
1&
#30000
1!
11
12
0&
04
17
05
13
1-
1%
#40000
0!
01
02
1&
#50000
1!
11
12
0&
14
18
06
03
0-
1/
0.
0%
1#
0$
#60000
0!
01
02
1&
#70000
1!
11
12
0&
04
15
13
1-
1%
#80000
0!
01
02
1&
#90000
1!
11
12
0&
14
16
03
0-
1.
0%
1$
#100000
0!
01
02
1&
#110000
1!
11
12
0&
04
19
07
05
13
1-
1%
#120000
0!
01
02
1&
#130000
1!
11
12
0&
14
1:
08
06
03
0-
10
0/
0.
0%
1"
0#
0$
#140000
0!
01
02
1&
#150000
1!
11
12
0&
04
15
13
1-
1%
#160000
0!
01
02
1&
#170000
1!
11
12
0&
14
16
03
0-
1.
0%
1$
#180000
0!
01
02
1&
#190000
1!
11
12
0&
04
17
05
13
1-
1%
#200000
0!
01
02
1&
#210000
1!
11
12
0&
14
18
06
03
0-
1/
0.
0%
1#
0$
#220000
0!
01
02
1&
#230000
1!
11
12
0&
04
15
13
1-
1%
#240000
0!
01
02
1&
#250000
1!
11
12
0&
14
16
03
0-
1.
0%
1$
#260000
0!
01
02
1&
#270000
1!
11
12
0&
04
09
07
05
13
1-
1%
#280000
0!
01
02
1&
#290000
1!
11
12
0&
14
0:
08
06
03
0-
00
0/
0.
0%
0"
0#
0$
#300000
0!
01
02
1&
#310000
1!
11
12
0&
04
15
13
1-
1%
#320000
0!
01
02
1&
#330000
1!
11
12
0&
14
16
03
0-
1.
0%
1$
#340000
0!
01
02
1&
#350000
1!
11
12
0&
04
17
05
13
1-
1%
#360000
0!
01
02
1&
#370000
1!
11
12
0&
14
18
06
03
0-
1/
0.
0%
1#
0$
#380000
0!
01
02
1&
#390000
1!
11
12
0&
04
15
13
1-
1%
#400000
0!
01
02
1&
#410000
1!
11
12
0&
14
16
03
0-
1.
0%
1$
#420000
0!
01
02
1&
#430000
1!
11
12
0&
04
19
07
05
13
1-
1%
#440000
0!
01
02
1&
#450000
1!
11
12
0&
14
1:
08
06
03
0-
10
0/
0.
0%
1"
0#
0$
#460000
0!
01
02
1&
#470000
1!
11
12
0&
04
15
13
1-
1%
#480000
0!
01
02
1&
#490000
1!
11
12
0&
14
16
03
0-
1.
0%
1$
#500000
0!
01
02
1&
#510000
1!
11
12
0&
04
17
05
13
1-
1%
#520000
0!
01
02
1&
#530000
1!
11
12
0&
14
18
06
03
0-
1/
0.
0%
1#
0$
#540000
0!
01
02
1&
#550000
1!
11
12
0&
04
15
13
1-
1%
#560000
0!
01
02
1&
#570000
1!
11
12
0&
14
16
03
0-
1.
0%
1$
#580000
0!
01
02
1&
#590000
1!
11
12
0&
04
09
07
05
13
1-
1%
#600000
0!
01
02
1&
#610000
1!
11
12
0&
14
0:
08
06
03
0-
00
0/
0.
0%
0"
0#
0$
#620000
0!
01
02
1&
#630000
1!
11
12
0&
04
15
13
1-
1%
#640000
0!
01
02
1&
#650000
1!
11
12
0&
14
16
03
0-
1.
0%
1$
#660000
0!
01
02
1&
#670000
1!
11
12
0&
04
17
05
13
1-
1%
#680000
0!
01
02
1&
#690000
1!
11
12
0&
14
18
06
03
0-
1/
0.
0%
1#
0$
#700000
0!
01
02
1&
#710000
1!
11
12
0&
04
15
13
1-
1%
#720000
0!
01
02
1&
#730000
1!
11
12
0&
14
16
03
0-
1.
0%
1$
#740000
0!
01
02
1&
#750000
1!
11
12
0&
04
19
07
05
13
1-
1%
#760000
0!
01
02
1&
#770000
1!
11
12
0&
14
1:
08
06
03
0-
10
0/
0.
0%
1"
0#
0$
#780000
0!
01
02
1&
#790000
1!
11
12
0&
04
15
13
1-
1%
#800000
0!
01
02
1&
#810000
1!
11
12
0&
14
16
03
0-
1.
0%
1$
#820000
0!
01
02
1&
#830000
1!
11
12
0&
04
17
05
13
1-
1%
#840000
0!
01
02
1&
#850000
1!
11
12
0&
14
18
06
03
0-
1/
0.
0%
1#
0$
#860000
0!
01
02
1&
#870000
1!
11
12
0&
04
15
13
1-
1%
#880000
0!
01
02
1&
#890000
1!
11
12
0&
14
16
03
0-
1.
0%
1$
#900000
0!
01
02
1&
#910000
1!
11
12
0&
04
09
07
05
13
1-
1%
#920000
0!
01
02
1&
#930000
1!
11
12
0&
14
0:
08
06
03
0-
00
0/
0.
0%
0"
0#
0$
#940000
0!
01
02
1&
#950000
1!
11
12
0&
04
15
13
1-
1%
#960000
0!
01
02
1&
#970000
1!
11
12
0&
14
16
03
0-
1.
0%
1$
#980000
0!
01
02
1&
#990000
1!
11
12
0&
04
17
05
13
1-
1%
