COA/Lab/alterafiles/lab_04_coa/task2/simulation/qsim/UpDownBinaryCounter.msim.vcd
$comment
	File created using the following command:
		vcd file UpDownBinaryCounter.msim.vcd -direction
$end
$date
	Fri Mar 07 13:32:28 2025
$end
$version
	ModelSim Version 10.1d
$end
$timescale
	1ps
$end
$scope module UpDownBinaryCounter_vlg_vec_tst $end
$var reg 1 ! clk $end
$var reg 1 " opcode $end
$var wire 1 # binOut [2] $end
$var wire 1 $ binOut [1] $end
$var wire 1 % binOut [0] $end
$var wire 1 & sampler $end
$scope module i1 $end
$var wire 1 ' gnd $end
$var wire 1 ( vcc $end
$var wire 1 ) unknown $end
$var tri1 1 * devclrn $end
$var tri1 1 + devpor $end
$var tri1 1 , devoe $end
$var wire 1 - binOut[0]~output_o $end
$var wire 1 . binOut[1]~output_o $end
$var wire 1 / binOut[2]~output_o $end
$var wire 1 0 clk~input_o $end
$var wire 1 1 clk~inputclkctrl_outclk $end
$var wire 1 2 U1|Q_not~0_combout $end
$var wire 1 3 U1|Q_not~q $end
$var wire 1 4 opcode~input_o $end
$var wire 1 5 U2|Q~feeder_combout $end
$var wire 1 6 U2|Q~q $end
$var wire 1 7 d1~0_combout $end
$var wire 1 8 U3|Q~0_combout $end
$var wire 1 9 U3|Q~q $end
$var wire 1 : U2|Q_not~0_combout $end
$var wire 1 ; U2|Q_not~q $end
$var wire 1 < d2~0_combout $end
$var wire 1 = d2~1_combout $end
$upscope $end
$upscope $end
$enddefinitions $end
#0
$dumpvars
0!
0"
0%
1$
0#
x&
0'
1(
x)
1*
1+
1,
0-
1.
0/
00
01
12
03
04
15
06
17
08
09
0:
0;
1<
1=
$end
#10000
1!
10
11
0&
16
13
02
1-
1%
#20000
0!
00
01
1&
#30000
1!
10
11
0&
03
0<
12
0-
0%
07
0=
1:
05
0.
0$
18
1/
1#
#40000
0!
00
01
1&
#50000
1!
10
11
0&
1;
19
06
13
1<
1=
02
1-
1%
0=
08
0/
0#
18
1/
1#
#60000
0!
00
01
1&
#70000
1!
10
11
0&
03
12
0-
0%
17
0:
15
1.
1$
#80000
0!
00
01
1&
#90000
1!
10
11
0&
0;
16
13
02
1-
1%
#100000
0!
00
01
1&
#110000
1!
10
11
0&
03
0<
12
0-
0%
07
1=
1:
05
0.
0$
08
0/
0#
#120000
0!
00
01
1&
#130000
1!
10
11
0&
1;
09
06
13
1<
0=
02
1-
1%
1=
18
1/
1#
08
0/
0#
#140000
0!
00
01
1&
#150000
1!
10
11
0&
03
12
0-
0%
17
0:
15
1.
1$
#160000
0!
00
01
1&
#170000
1!
10
11
0&
0;
16
13
02
1-
1%
#180000
0!
00
01
1&
#190000
1!
10
11
0&
03
0<
12
0-
0%
07
0=
1:
05
0.
0$
18
1/
1#
#200000
0!
00
01
1&
#210000
1!
10
11
0&
1;
19
06
13
1<
1=
02
1-
1%
0=
08
0/
0#
18
1/
1#
#220000
0!
00
01
1&
#230000
1!
10
11
0&
03
12
0-
0%
17
0:
15
1.
1$
#240000
0!
00
01
1&
#250000
1!
10
11
0&
0;
16
13
02
1-
1%
#260000
0!
00
01
1&
#270000
1!
10
11
0&
03
0<
12
0-
0%
07
1=
1:
05
0.
0$
08
0/
0#
#280000
0!
00
01
1&
#290000
1!
10
11
0&
1;
09
06
13
1<
0=
02
1-
1%
1=
18
1/
1#
08
0/
0#
#300000
0!
00
01
1&
#310000
1!
10
11
0&
03
12
0-
0%
17
0:
15
1.
1$
#320000
0!
00
01
1&
#330000
1!
10
11
0&
0;
16
13
02
1-
1%
#340000
0!
00
01
1&
#350000
1!
10
11
0&
03
0<
12
0-
0%
07
0=
1:
05
0.
0$
18
1/
1#
#360000
0!
00
01
1&
#370000
1!
10
11
0&
1;
19
06
13
1<
1=
02
1-
1%
0=
08
0/
0#
18
1/
1#
#380000
0!
00
01
1&
#390000
1!
10
11
0&
03
12
0-
0%
17
0:
15
1.
1$
#400000
0!
00
01
1&
#410000
1!
10
11
0&
0;
16
13
02
1-
1%
#420000
0!
00
01
1&
#430000
1!
10
11
0&
03
0<
12
0-
0%
07
1=
1:
05
0.
0$
08
0/
0#
#440000
0!
00
01
1&
#450000
1!
10
11
0&
1;
09
06
13
1<
0=
02
1-
1%
1=
18
1/
1#
08
0/
0#
#460000
0!
00
01
1&
#470000
1!
10
11
0&
03
12
0-
0%
17
0:
15
1.
1$
#480000
0!
00
01
1&
#490000
1!
10
11
0&
0;
16
13
02
1-
1%
#500000
0!
00
01
1&
#510000
1!
10
11
0&
03
0<
12
0-
0%
07
0=
1:
05
0.
0$
18
1/
1#
#520000
0!
00
01
1&
#530000
1!
10
11
0&
1;
19
06
13
1<
1=
02
1-
1%
0=
08
0/
0#
18
1/
1#
#540000
0!
00
01
1&
#550000
1!
10
11
0&
03
12
0-
0%
17
0:
15
1.
1$
#560000
0!
00
01
1&
#570000
1!
10
11
0&
0;
16
13
02
1-
1%
#580000
0!
00
01
1&
#590000
1!
10
11
0&
03
0<
12
0-
0%
07
1=
1:
05
0.
0$
08
0/
0#
#600000
0!
00
01
1&
#610000
1!
10
11
0&
1;
09
06
13
1<
0=
02
1-
1%
1=
18
1/
1#
08
0/
0#
#620000
0!
00
01
1&
#630000
1!
10
11
0&
03
12
0-
0%
17
0:
15
1.
1$
#640000
0!
00
01
1&
#650000
1!
10
11
0&
0;
16
13
02
1-
1%
#660000
0!
00
01
1&
#670000
1!
10
11
0&
03
0<
12
0-
0%
07
0=
1:
05
0.
0$
18
1/
1#
#680000
0!
00
01
1&
#690000
1!
10
11
0&
1;
19
06
13
1<
1=
02
1-
1%
0=
08
0/
0#
18
1/
1#
#700000
0!
00
01
1&
#710000
1!
10
11
0&
03
12
0-
0%
17
0:
15
1.
1$
#720000
0!
00
01
1&
#730000
1!
10
11
0&
0;
16
13
02
1-
1%
#740000
0!
00
01
1&
#750000
1!
10
11
0&
03
0<
12
0-
0%
07
1=
1:
05
0.
0$
08
0/
0#
#760000
0!
00
01
1&
#770000
1!
10
11
0&
1;
09
06
13
1<
0=
02
1-
1%
1=
18
1/
1#
08
0/
0#
#780000
0!
00
01
1&
#790000
1!
10
11
0&
03
12
0-
0%
17
0:
15
1.
1$
#800000
0!
00
01
1&
#810000
1!
10
11
0&
0;
16
13
02
1-
1%
#820000
0!
00
01
1&
#830000
1!
10
11
0&
03
0<
12
0-
0%
07
0=
1:
05
0.
0$
18
1/
1#
#840000
0!
00
01
1&
#850000
1!
10
11
0&
1;
19
06
13
1<
1=
02
1-
1%
0=
08
0/
0#
18
1/
1#
#860000
0!
00
01
1&
#870000
1!
10
11
0&
03
12
0-
0%
17
0:
15
1.
1$
#880000
0!
00
01
1&
#890000
1!
10
11
0&
0;
16
13
02
1-
1%
#900000
0!
00
01
1&
#910000
1!
10
11
0&
03
0<
12
0-
0%
07
1=
1:
05
0.
0$
08
0/
0#
#920000
0!
00
01
1&
#930000
1!
10
11
0&
1;
09
06
13
1<
0=
02
1-
1%
1=
18
1/
1#
08
0/
0#
#940000
0!
00
01
1&
#950000
1!
10
11
0&
03
12
0-
0%
17
0:
15
1.
1$
#960000
0!
00
01
1&
#970000
1!
10
11
0&
0;
16
13
02
1-
1%
#980000
0!
00
01
1&
#990000
1!
10
11
0&
03
0<
12
0-
0%
07
0=
1:
05
0.
0$
18
1/
1#
